[
  {
    "type": "archive",
    "archive-type": "tar-gzip",
    "url": "https://static.crates.io/crates/ahash/ahash-0.8.11.crate",
    "sha256": "e89da841a80418a9b391ebaea17f5c112ffaaa96f621d2c285b5174da76b9011",
    "dest": "cargo/vendor/ahash-0.8.11"
  },
  {
    "type": "inline",
    "contents": "{\"package\": \"e89da841a80418a9b391ebaea17f5c112ffaaa96f621d2c285b5174da76b9011\", \"files\": {}}",
    "dest": "cargo/vendor/ahash-0.8.11",
    "dest-filename": ".cargo-checksum.json"
  },
  {
    "type": "archive",
    "archive-type": "tar-gzip",
    "url": "https://static.crates.io/crates/aho-corasick/aho-corasick-1.1.2.crate",
    "sha256": "b2969dcb958b36655471fc61f7e416fa76033bdd4bfed0678d8fee1e2d07a1f0",
    "dest": "cargo/vendor/aho-corasick-1.1.2"
  },
  {
    "type": "inline",
    "contents": "{\"package\": \"b2969dcb958b36655471fc61f7e416fa76033bdd4bfed0678d8fee1e2d07a1f0\", \"files\": {}}",
    "dest": "cargo/vendor/aho-corasick-1.1.2",
    "dest-filename": ".cargo-checksum.json"
  },
  {
    "type": "archive",
    "archive-type": "tar-gzip",
    "url": "https://static.crates.io/crates/allocator-api2/allocator-api2-0.2.16.crate",
    "sha256": "0942ffc6dcaadf03badf6e6a2d0228460359d5e34b57ccdc720b7382dfbd5ec5",
    "dest": "cargo/vendor/allocator-api2-0.2.16"
  },
  {
    "type": "inline",
    "contents": "{\"package\": \"0942ffc6dcaadf03badf6e6a2d0228460359d5e34b57ccdc720b7382dfbd5ec5\", \"files\": {}}",
    "dest": "cargo/vendor/allocator-api2-0.2.16",
    "dest-filename": ".cargo-checksum.json"
  },
  {
    "type": "archive",
    "archive-type": "tar-gzip",
    "url": "https://static.crates.io/crates/anyhow/anyhow-1.0.80.crate",
    "sha256": "5ad32ce52e4161730f7098c077cd2ed6229b5804ccf99e5366be1ab72a98b4e1",
    "dest": "cargo/vendor/anyhow-1.0.80"
  },
  {
    "type": "inline",
    "contents": "{\"package\": \"5ad32ce52e4161730f7098c077cd2ed6229b5804ccf99e5366be1ab72a98b4e1\", \"files\": {}}",
    "dest": "cargo/vendor/anyhow-1.0.80",
    "dest-filename": ".cargo-checksum.json"
  },
  {
    "type": "archive",
    "archive-type": "tar-gzip",
    "url": "https://static.crates.io/crates/autocfg/autocfg-1.1.0.crate",
    "sha256": "d468802bab17cbc0cc575e9b053f41e72aa36bfa6b7f55e3529ffa43161b97fa",
    "dest": "cargo/vendor/autocfg-1.1.0"
  },
  {
    "type": "inline",
    "contents": "{\"package\": \"d468802bab17cbc0cc575e9b053f41e72aa36bfa6b7f55e3529ffa43161b97fa\", \"files\": {}}",
    "dest": "cargo/vendor/autocfg-1.1.0",
    "dest-filename": ".cargo-checksum.json"
  },
  {
    "type": "archive",
    "archive-type": "tar-gzip",
    "url": "https://static.crates.io/crates/bitflags/bitflags-2.4.2.crate",
    "sha256": "ed570934406eb16438a4e976b1b4500774099c13b8cb96eec99f620f05090ddf",
    "dest": "cargo/vendor/bitflags-2.4.2"
  },
  {
    "type": "inline",
    "contents": "{\"package\": \"ed570934406eb16438a4e976b1b4500774099c13b8cb96eec99f620f05090ddf\", \"files\": {}}",
    "dest": "cargo/vendor/bitflags-2.4.2",
    "dest-filename": ".cargo-checksum.json"
  },
  {
    "type": "archive",
    "archive-type": "tar-gzip",
    "url": "https://static.crates.io/crates/block/block-0.1.6.crate",
    "sha256": "0d8c1fef690941d3e7788d328517591fecc684c084084702d6ff1641e993699a",
    "dest": "cargo/vendor/block-0.1.6"
  },
  {
    "type": "inline",
    "contents": "{\"package\": \"0d8c1fef690941d3e7788d328517591fecc684c084084702d6ff1641e993699a\", \"files\": {}}",
    "dest": "cargo/vendor/block-0.1.6",
    "dest-filename": ".cargo-checksum.json"
  },
  {
    "type": "archive",
    "archive-type": "tar-gzip",
    "url": "https://static.crates.io/crates/cairo-rs/cairo-rs-0.19.2.crate",
    "sha256": "2650f66005301bd33cc486dec076e1293c4cecf768bc7ba9bf5d2b1be339b99c",
    "dest": "cargo/vendor/cairo-rs-0.19.2"
  },
  {
    "type": "inline",
    "contents": "{\"package\": \"2650f66005301bd33cc486dec076e1293c4cecf768bc7ba9bf5d2b1be339b99c\", \"files\": {}}",
    "dest": "cargo/vendor/cairo-rs-0.19.2",
    "dest-filename": ".cargo-checksum.json"
  },
  {
    "type": "archive",
    "archive-type": "tar-gzip",
    "url": "https://static.crates.io/crates/cairo-sys-rs/cairo-sys-rs-0.19.2.crate",
    "sha256": "fd3bb3119664efbd78b5e6c93957447944f16bdbced84c17a9f41c7829b81e64",
    "dest": "cargo/vendor/cairo-sys-rs-0.19.2"
  },
  {
    "type": "inline",
    "contents": "{\"package\": \"fd3bb3119664efbd78b5e6c93957447944f16bdbced84c17a9f41c7829b81e64\", \"files\": {}}",
    "dest": "cargo/vendor/cairo-sys-rs-0.19.2",
    "dest-filename": ".cargo-checksum.json"
  },
  {
    "type": "archive",
    "archive-type": "tar-gzip",
    "url": "https://static.crates.io/crates/cc/cc-1.0.90.crate",
    "sha256": "8cd6604a82acf3039f1144f54b8eb34e91ffba622051189e71b781822d5ee1f5",
    "dest": "cargo/vendor/cc-1.0.90"
  },
  {
    "type": "inline",
    "contents": "{\"package\": \"8cd6604a82acf3039f1144f54b8eb34e91ffba622051189e71b781822d5ee1f5\", \"files\": {}}",
    "dest": "cargo/vendor/cc-1.0.90",
    "dest-filename": ".cargo-checksum.json"
  },
  {
    "type": "archive",
    "archive-type": "tar-gzip",
    "url": "https://static.crates.io/crates/cfg-expr/cfg-expr-0.15.7.crate",
    "sha256": "fa50868b64a9a6fda9d593ce778849ea8715cd2a3d2cc17ffdb4a2f2f2f1961d",
    "dest": "cargo/vendor/cfg-expr-0.15.7"
  },
  {
    "type": "inline",
    "contents": "{\"package\": \"fa50868b64a9a6fda9d593ce778849ea8715cd2a3d2cc17ffdb4a2f2f2f1961d\", \"files\": {}}",
    "dest": "cargo/vendor/cfg-expr-0.15.7",
    "dest-filename": ".cargo-checksum.json"
  },
  {
    "type": "archive",
    "archive-type": "tar-gzip",
    "url": "https://static.crates.io/crates/cfg-if/cfg-if-1.0.0.crate",
    "sha256": "baf1de4339761588bc0619e3cbc0120ee582ebb74b53b4efbf79117bd2da40fd",
    "dest": "cargo/vendor/cfg-if-1.0.0"
  },
  {
    "type": "inline",
    "contents": "{\"package\": \"baf1de4339761588bc0619e3cbc0120ee582ebb74b53b4efbf79117bd2da40fd\", \"files\": {}}",
    "dest": "cargo/vendor/cfg-if-1.0.0",
    "dest-filename": ".cargo-checksum.json"
  },
  {
    "type": "archive",
    "archive-type": "tar-gzip",
    "url": "https://static.crates.io/crates/const-random/const-random-0.1.18.crate",
    "sha256": "87e00182fe74b066627d63b85fd550ac2998d4b0bd86bfed477a0ae4c7c71359",
    "dest": "cargo/vendor/const-random-0.1.18"
  },
  {
    "type": "inline",
    "contents": "{\"package\": \"87e00182fe74b066627d63b85fd550ac2998d4b0bd86bfed477a0ae4c7c71359\", \"files\": {}}",
    "dest": "cargo/vendor/const-random-0.1.18",
    "dest-filename": ".cargo-checksum.json"
  },
  {
    "type": "archive",
    "archive-type": "tar-gzip",
    "url": "https://static.crates.io/crates/const-random-macro/const-random-macro-0.1.16.crate",
    "sha256": "f9d839f2a20b0aee515dc581a6172f2321f96cab76c1a38a4c584a194955390e",
    "dest": "cargo/vendor/const-random-macro-0.1.16"
  },
  {
    "type": "inline",
    "contents": "{\"package\": \"f9d839f2a20b0aee515dc581a6172f2321f96cab76c1a38a4c584a194955390e\", \"files\": {}}",
    "dest": "cargo/vendor/const-random-macro-0.1.16",
    "dest-filename": ".cargo-checksum.json"
  },
  {
    "type": "archive",
    "archive-type": "tar-gzip",
    "url": "https://static.crates.io/crates/crunchy/crunchy-0.2.2.crate",
    "sha256": "7a81dae078cea95a014a339291cec439d2f232ebe854a9d672b796c6afafa9b7",
    "dest": "cargo/vendor/crunchy-0.2.2"
  },
  {
    "type": "inline",
    "contents": "{\"package\": \"7a81dae078cea95a014a339291cec439d2f232ebe854a9d672b796c6afafa9b7\", \"files\": {}}",
    "dest": "cargo/vendor/crunchy-0.2.2",
    "dest-filename": ".cargo-checksum.json"
  },
  {
    "type": "archive",
    "archive-type": "tar-gzip",
    "url": "https://static.crates.io/crates/dbus/dbus-0.9.7.crate",
    "sha256": "1bb21987b9fb1613058ba3843121dd18b163b254d8a6e797e144cbac14d96d1b",
    "dest": "cargo/vendor/dbus-0.9.7"
  },
  {
    "type": "inline",
    "contents": "{\"package\": \"1bb21987b9fb1613058ba3843121dd18b163b254d8a6e797e144cbac14d96d1b\", \"files\": {}}",
    "dest": "cargo/vendor/dbus-0.9.7",
    "dest-filename": ".cargo-checksum.json"
  },
  {
    "type": "archive",
    "archive-type": "tar-gzip",
    "url": "https://static.crates.io/crates/dlv-list/dlv-list-0.5.2.crate",
    "sha256": "442039f5147480ba31067cb00ada1adae6892028e40e45fc5de7b7df6dcc1b5f",
    "dest": "cargo/vendor/dlv-list-0.5.2"
  },
  {
    "type": "inline",
    "contents": "{\"package\": \"442039f5147480ba31067cb00ada1adae6892028e40e45fc5de7b7df6dcc1b5f\", \"files\": {}}",
    "dest": "cargo/vendor/dlv-list-0.5.2",
    "dest-filename": ".cargo-checksum.json"
  },
  {
    "type": "archive",
    "archive-type": "tar-gzip",
    "url": "https://static.crates.io/crates/equivalent/equivalent-1.0.1.crate",
    "sha256": "5443807d6dff69373d433ab9ef5378ad8df50ca6298caf15de6e52e24aaf54d5",
    "dest": "cargo/vendor/equivalent-1.0.1"
  },
  {
    "type": "inline",
    "contents": "{\"package\": \"5443807d6dff69373d433ab9ef5378ad8df50ca6298caf15de6e52e24aaf54d5\", \"files\": {}}",
    "dest": "cargo/vendor/equivalent-1.0.1",
    "dest-filename": ".cargo-checksum.json"
  },
  {
    "type": "archive",
    "archive-type": "tar-gzip",
    "url": "https://static.crates.io/crates/errno-sys/errno-sys-0.2.0.crate",
    "sha256": "a8f7083207e75d4435df450dc6413612d97fe5a441477aba02484f9f7f77057e",
    "dest": "cargo/vendor/errno-sys-0.2.0"
  },
  {
    "type": "inline",
    "contents": "{\"package\": \"a8f7083207e75d4435df450dc6413612d97fe5a441477aba02484f9f7f77057e\", \"files\": {}}",
    "dest": "cargo/vendor/errno-sys-0.2.0",
    "dest-filename": ".cargo-checksum.json"
  },
  {
    "type": "archive",
    "archive-type": "tar-gzip",
    "url": "https://static.crates.io/crates/fallible-iterator/fallible-iterator-0.3.0.crate",
    "sha256": "2acce4a10f12dc2fb14a218589d4f1f62ef011b2d0cc4b3cb1bba8e94da14649",
    "dest": "cargo/vendor/fallible-iterator-0.3.0"
  },
  {
    "type": "inline",
    "contents": "{\"package\": \"2acce4a10f12dc2fb14a218589d4f1f62ef011b2d0cc4b3cb1bba8e94da14649\", \"files\": {}}",
    "dest": "cargo/vendor/fallible-iterator-0.3.0",
    "dest-filename": ".cargo-checksum.json"
  },
  {
    "type": "archive",
    "archive-type": "tar-gzip",
    "url": "https://static.crates.io/crates/fallible-streaming-iterator/fallible-streaming-iterator-0.1.9.crate",
    "sha256": "7360491ce676a36bf9bb3c56c1aa791658183a54d2744120f27285738d90465a",
    "dest": "cargo/vendor/fallible-streaming-iterator-0.1.9"
  },
  {
    "type": "inline",
    "contents": "{\"package\": \"7360491ce676a36bf9bb3c56c1aa791658183a54d2744120f27285738d90465a\", \"files\": {}}",
    "dest": "cargo/vendor/fallible-streaming-iterator-0.1.9",
    "dest-filename": ".cargo-checksum.json"
  },
  {
    "type": "archive",
    "archive-type": "tar-gzip",
    "url": "https://static.crates.io/crates/field-offset/field-offset-0.3.6.crate",
    "sha256": "38e2275cc4e4fc009b0669731a1e5ab7ebf11f469eaede2bab9309a5b4d6057f",
    "dest": "cargo/vendor/field-offset-0.3.6"
  },
  {
    "type": "inline",
    "contents": "{\"package\": \"38e2275cc4e4fc009b0669731a1e5ab7ebf11f469eaede2bab9309a5b4d6057f\", \"files\": {}}",
    "dest": "cargo/vendor/field-offset-0.3.6",
    "dest-filename": ".cargo-checksum.json"
  },
  {
    "type": "archive",
    "archive-type": "tar-gzip",
    "url": "https://static.crates.io/crates/futures-channel/futures-channel-0.3.30.crate",
    "sha256": "eac8f7d7865dcb88bd4373ab671c8cf4508703796caa2b1985a9ca867b3fcb78",
    "dest": "cargo/vendor/futures-channel-0.3.30"
  },
  {
    "type": "inline",
    "contents": "{\"package\": \"eac8f7d7865dcb88bd4373ab671c8cf4508703796caa2b1985a9ca867b3fcb78\", \"files\": {}}",
    "dest": "cargo/vendor/futures-channel-0.3.30",
    "dest-filename": ".cargo-checksum.json"
  },
  {
    "type": "archive",
    "archive-type": "tar-gzip",
    "url": "https://static.crates.io/crates/futures-core/futures-core-0.3.30.crate",
    "sha256": "dfc6580bb841c5a68e9ef15c77ccc837b40a7504914d52e47b8b0e9bbda25a1d",
    "dest": "cargo/vendor/futures-core-0.3.30"
  },
  {
    "type": "inline",
    "contents": "{\"package\": \"dfc6580bb841c5a68e9ef15c77ccc837b40a7504914d52e47b8b0e9bbda25a1d\", \"files\": {}}",
    "dest": "cargo/vendor/futures-core-0.3.30",
    "dest-filename": ".cargo-checksum.json"
  },
  {
    "type": "archive",
    "archive-type": "tar-gzip",
    "url": "https://static.crates.io/crates/futures-executor/futures-executor-0.3.30.crate",
    "sha256": "a576fc72ae164fca6b9db127eaa9a9dda0d61316034f33a0a0d4eda41f02b01d",
    "dest": "cargo/vendor/futures-executor-0.3.30"
  },
  {
    "type": "inline",
    "contents": "{\"package\": \"a576fc72ae164fca6b9db127eaa9a9dda0d61316034f33a0a0d4eda41f02b01d\", \"files\": {}}",
    "dest": "cargo/vendor/futures-executor-0.3.30",
    "dest-filename": ".cargo-checksum.json"
  },
  {
    "type": "archive",
    "archive-type": "tar-gzip",
    "url": "https://static.crates.io/crates/futures-io/futures-io-0.3.30.crate",
    "sha256": "a44623e20b9681a318efdd71c299b6b222ed6f231972bfe2f224ebad6311f0c1",
    "dest": "cargo/vendor/futures-io-0.3.30"
  },
  {
    "type": "inline",
    "contents": "{\"package\": \"a44623e20b9681a318efdd71c299b6b222ed6f231972bfe2f224ebad6311f0c1\", \"files\": {}}",
    "dest": "cargo/vendor/futures-io-0.3.30",
    "dest-filename": ".cargo-checksum.json"
  },
  {
    "type": "archive",
    "archive-type": "tar-gzip",
    "url": "https://static.crates.io/crates/futures-macro/futures-macro-0.3.30.crate",
    "sha256": "87750cf4b7a4c0625b1529e4c543c2182106e4dedc60a2a6455e00d212c489ac",
    "dest": "cargo/vendor/futures-macro-0.3.30"
  },
  {
    "type": "inline",
    "contents": "{\"package\": \"87750cf4b7a4c0625b1529e4c543c2182106e4dedc60a2a6455e00d212c489ac\", \"files\": {}}",
    "dest": "cargo/vendor/futures-macro-0.3.30",
    "dest-filename": ".cargo-checksum.json"
  },
  {
    "type": "archive",
    "archive-type": "tar-gzip",
    "url": "https://static.crates.io/crates/futures-task/futures-task-0.3.30.crate",
    "sha256": "38d84fa142264698cdce1a9f9172cf383a0c82de1bddcf3092901442c4097004",
    "dest": "cargo/vendor/futures-task-0.3.30"
  },
  {
    "type": "inline",
    "contents": "{\"package\": \"38d84fa142264698cdce1a9f9172cf383a0c82de1bddcf3092901442c4097004\", \"files\": {}}",
    "dest": "cargo/vendor/futures-task-0.3.30",
    "dest-filename": ".cargo-checksum.json"
  },
  {
    "type": "archive",
    "archive-type": "tar-gzip",
    "url": "https://static.crates.io/crates/futures-util/futures-util-0.3.30.crate",
    "sha256": "3d6401deb83407ab3da39eba7e33987a73c3df0c82b4bb5813ee871c19c41d48",
    "dest": "cargo/vendor/futures-util-0.3.30"
  },
  {
    "type": "inline",
    "contents": "{\"package\": \"3d6401deb83407ab3da39eba7e33987a73c3df0c82b4bb5813ee871c19c41d48\", \"files\": {}}",
    "dest": "cargo/vendor/futures-util-0.3.30",
    "dest-filename": ".cargo-checksum.json"
  },
  {
    "type": "archive",
    "archive-type": "tar-gzip",
    "url": "https://static.crates.io/crates/gdk-pixbuf/gdk-pixbuf-0.19.2.crate",
    "sha256": "f6a23f8a0b5090494fd04924662d463f8386cc678dd3915015a838c1a3679b92",
    "dest": "cargo/vendor/gdk-pixbuf-0.19.2"
  },
  {
    "type": "inline",
    "contents": "{\"package\": \"f6a23f8a0b5090494fd04924662d463f8386cc678dd3915015a838c1a3679b92\", \"files\": {}}",
    "dest": "cargo/vendor/gdk-pixbuf-0.19.2",
    "dest-filename": ".cargo-checksum.json"
  },
  {
    "type": "archive",
    "archive-type": "tar-gzip",
    "url": "https://static.crates.io/crates/gdk-pixbuf-sys/gdk-pixbuf-sys-0.19.0.crate",
    "sha256": "3dcbd04c1b2c4834cc008b4828bc917d062483b88d26effde6342e5622028f96",
    "dest": "cargo/vendor/gdk-pixbuf-sys-0.19.0"
  },
  {
    "type": "inline",
    "contents": "{\"package\": \"3dcbd04c1b2c4834cc008b4828bc917d062483b88d26effde6342e5622028f96\", \"files\": {}}",
    "dest": "cargo/vendor/gdk-pixbuf-sys-0.19.0",
    "dest-filename": ".cargo-checksum.json"
  },
  {
    "type": "archive",
    "archive-type": "tar-gzip",
    "url": "https://static.crates.io/crates/gdk4/gdk4-0.8.1.crate",
    "sha256": "9100b25604183f2fd97f55ef087fae96ab4934d7215118a35303e422688e6e4b",
    "dest": "cargo/vendor/gdk4-0.8.1"
  },
  {
    "type": "inline",
    "contents": "{\"package\": \"9100b25604183f2fd97f55ef087fae96ab4934d7215118a35303e422688e6e4b\", \"files\": {}}",
    "dest": "cargo/vendor/gdk4-0.8.1",
    "dest-filename": ".cargo-checksum.json"
  },
  {
    "type": "archive",
    "archive-type": "tar-gzip",
    "url": "https://static.crates.io/crates/gdk4-sys/gdk4-sys-0.8.1.crate",
    "sha256": "d0b76874c40bb8d1c7d03a7231e23ac75fa577a456cd53af32ec17ec8f121626",
    "dest": "cargo/vendor/gdk4-sys-0.8.1"
  },
  {
    "type": "inline",
    "contents": "{\"package\": \"d0b76874c40bb8d1c7d03a7231e23ac75fa577a456cd53af32ec17ec8f121626\", \"files\": {}}",
    "dest": "cargo/vendor/gdk4-sys-0.8.1",
    "dest-filename": ".cargo-checksum.json"
  },
  {
    "type": "archive",
    "archive-type": "tar-gzip",
    "url": "https://static.crates.io/crates/getrandom/getrandom-0.2.12.crate",
    "sha256": "190092ea657667030ac6a35e305e62fc4dd69fd98ac98631e5d3a2b1575a12b5",
    "dest": "cargo/vendor/getrandom-0.2.12"
  },
  {
    "type": "inline",
    "contents": "{\"package\": \"190092ea657667030ac6a35e305e62fc4dd69fd98ac98631e5d3a2b1575a12b5\", \"files\": {}}",
    "dest": "cargo/vendor/getrandom-0.2.12",
    "dest-filename": ".cargo-checksum.json"
  },
  {
    "type": "archive",
    "archive-type": "tar-gzip",
    "url": "https://static.crates.io/crates/gettext-rs/gettext-rs-0.7.0.crate",
    "sha256": "e49ea8a8fad198aaa1f9655a2524b64b70eb06b2f3ff37da407566c93054f364",
    "dest": "cargo/vendor/gettext-rs-0.7.0"
  },
  {
    "type": "inline",
    "contents": "{\"package\": \"e49ea8a8fad198aaa1f9655a2524b64b70eb06b2f3ff37da407566c93054f364\", \"files\": {}}",
    "dest": "cargo/vendor/gettext-rs-0.7.0",
    "dest-filename": ".cargo-checksum.json"
  },
  {
    "type": "archive",
    "archive-type": "tar-gzip",
    "url": "https://static.crates.io/crates/gettext-sys/gettext-sys-0.21.3.crate",
    "sha256": "c63ce2e00f56a206778276704bbe38564c8695249fdc8f354b4ef71c57c3839d",
    "dest": "cargo/vendor/gettext-sys-0.21.3"
  },
  {
    "type": "inline",
    "contents": "{\"package\": \"c63ce2e00f56a206778276704bbe38564c8695249fdc8f354b4ef71c57c3839d\", \"files\": {}}",
    "dest": "cargo/vendor/gettext-sys-0.21.3",
    "dest-filename": ".cargo-checksum.json"
  },
  {
    "type": "archive",
    "archive-type": "tar-gzip",
    "url": "https://static.crates.io/crates/gio/gio-0.19.2.crate",
    "sha256": "2eae10b27b6dd27e22ed0d812c6387deba295e6fc004a8b379e459b663b05a02",
    "dest": "cargo/vendor/gio-0.19.2"
  },
  {
    "type": "inline",
    "contents": "{\"package\": \"2eae10b27b6dd27e22ed0d812c6387deba295e6fc004a8b379e459b663b05a02\", \"files\": {}}",
    "dest": "cargo/vendor/gio-0.19.2",
    "dest-filename": ".cargo-checksum.json"
  },
  {
    "type": "archive",
    "archive-type": "tar-gzip",
    "url": "https://static.crates.io/crates/gio-sys/gio-sys-0.19.0.crate",
    "sha256": "bcf8e1d9219bb294636753d307b030c1e8a032062cba74f493c431a5c8b81ce4",
    "dest": "cargo/vendor/gio-sys-0.19.0"
  },
  {
    "type": "inline",
    "contents": "{\"package\": \"bcf8e1d9219bb294636753d307b030c1e8a032062cba74f493c431a5c8b81ce4\", \"files\": {}}",
    "dest": "cargo/vendor/gio-sys-0.19.0",
    "dest-filename": ".cargo-checksum.json"
  },
  {
    "type": "archive",
    "archive-type": "tar-gzip",
    "url": "https://static.crates.io/crates/glib/glib-0.19.2.crate",
    "sha256": "ab9e86540b5d8402e905ad4ce7d6aa544092131ab564f3102175af176b90a053",
    "dest": "cargo/vendor/glib-0.19.2"
  },
  {
    "type": "inline",
    "contents": "{\"package\": \"ab9e86540b5d8402e905ad4ce7d6aa544092131ab564f3102175af176b90a053\", \"files\": {}}",
    "dest": "cargo/vendor/glib-0.19.2",
    "dest-filename": ".cargo-checksum.json"
  },
  {
    "type": "archive",
    "archive-type": "tar-gzip",
    "url": "https://static.crates.io/crates/glib-macros/glib-macros-0.19.2.crate",
    "sha256": "0f5897ca27a83e4cdc7b4666850bade0a2e73e17689aabafcc9acddad9d823b8",
    "dest": "cargo/vendor/glib-macros-0.19.2"
  },
  {
    "type": "inline",
    "contents": "{\"package\": \"0f5897ca27a83e4cdc7b4666850bade0a2e73e17689aabafcc9acddad9d823b8\", \"files\": {}}",
    "dest": "cargo/vendor/glib-macros-0.19.2",
    "dest-filename": ".cargo-checksum.json"
  },
  {
    "type": "archive",
    "archive-type": "tar-gzip",
    "url": "https://static.crates.io/crates/glib-sys/glib-sys-0.19.0.crate",
    "sha256": "630f097773d7c7a0bb3258df4e8157b47dc98bbfa0e60ad9ab56174813feced4",
    "dest": "cargo/vendor/glib-sys-0.19.0"
  },
  {
    "type": "inline",
    "contents": "{\"package\": \"630f097773d7c7a0bb3258df4e8157b47dc98bbfa0e60ad9ab56174813feced4\", \"files\": {}}",
    "dest": "cargo/vendor/glib-sys-0.19.0",
    "dest-filename": ".cargo-checksum.json"
  },
  {
    "type": "archive",
    "archive-type": "tar-gzip",
    "url": "https://static.crates.io/crates/gobject-sys/gobject-sys-0.19.0.crate",
    "sha256": "c85e2b1080b9418dd0c58b498da3a5c826030343e0ef07bde6a955d28de54979",
    "dest": "cargo/vendor/gobject-sys-0.19.0"
  },
  {
    "type": "inline",
    "contents": "{\"package\": \"c85e2b1080b9418dd0c58b498da3a5c826030343e0ef07bde6a955d28de54979\", \"files\": {}}",
    "dest": "cargo/vendor/gobject-sys-0.19.0",
    "dest-filename": ".cargo-checksum.json"
  },
  {
    "type": "archive",
    "archive-type": "tar-gzip",
    "url": "https://static.crates.io/crates/graphene-rs/graphene-rs-0.19.2.crate",
    "sha256": "99e4d388e96c5f29e2b2f67045d229ddf826d0a8d6d282f94ed3b34452222c91",
    "dest": "cargo/vendor/graphene-rs-0.19.2"
  },
  {
    "type": "inline",
    "contents": "{\"package\": \"99e4d388e96c5f29e2b2f67045d229ddf826d0a8d6d282f94ed3b34452222c91\", \"files\": {}}",
    "dest": "cargo/vendor/graphene-rs-0.19.2",
    "dest-filename": ".cargo-checksum.json"
  },
  {
    "type": "archive",
    "archive-type": "tar-gzip",
    "url": "https://static.crates.io/crates/graphene-sys/graphene-sys-0.19.0.crate",
    "sha256": "236ed66cc9b18d8adf233716f75de803d0bf6fc806f60d14d948974a12e240d0",
    "dest": "cargo/vendor/graphene-sys-0.19.0"
  },
  {
    "type": "inline",
    "contents": "{\"package\": \"236ed66cc9b18d8adf233716f75de803d0bf6fc806f60d14d948974a12e240d0\", \"files\": {}}",
    "dest": "cargo/vendor/graphene-sys-0.19.0",
    "dest-filename": ".cargo-checksum.json"
  },
  {
    "type": "archive",
    "archive-type": "tar-gzip",
    "url": "https://static.crates.io/crates/gsk4/gsk4-0.8.1.crate",
    "sha256": "c65036fc8f99579e8cb37b12487969b707ab23ec8ab953682ff347cbd15d396e",
    "dest": "cargo/vendor/gsk4-0.8.1"
  },
  {
    "type": "inline",
    "contents": "{\"package\": \"c65036fc8f99579e8cb37b12487969b707ab23ec8ab953682ff347cbd15d396e\", \"files\": {}}",
    "dest": "cargo/vendor/gsk4-0.8.1",
    "dest-filename": ".cargo-checksum.json"
  },
  {
    "type": "archive",
    "archive-type": "tar-gzip",
    "url": "https://static.crates.io/crates/gsk4-sys/gsk4-sys-0.8.1.crate",
    "sha256": "bd24c814379f9c3199dc53e52253ee8d0f657eae389ab282c330505289d24738",
    "dest": "cargo/vendor/gsk4-sys-0.8.1"
  },
  {
    "type": "inline",
    "contents": "{\"package\": \"bd24c814379f9c3199dc53e52253ee8d0f657eae389ab282c330505289d24738\", \"files\": {}}",
    "dest": "cargo/vendor/gsk4-sys-0.8.1",
    "dest-filename": ".cargo-checksum.json"
  },
  {
    "type": "archive",
    "archive-type": "tar-gzip",
    "url": "https://static.crates.io/crates/gtk4/gtk4-0.8.1.crate",
    "sha256": "aa82753b8c26277e4af1446c70e35b19aad4fb794a7b143859e7eeb9a4025d83",
    "dest": "cargo/vendor/gtk4-0.8.1"
  },
  {
    "type": "inline",
    "contents": "{\"package\": \"aa82753b8c26277e4af1446c70e35b19aad4fb794a7b143859e7eeb9a4025d83\", \"files\": {}}",
    "dest": "cargo/vendor/gtk4-0.8.1",
    "dest-filename": ".cargo-checksum.json"
  },
  {
    "type": "archive",
    "archive-type": "tar-gzip",
    "url": "https://static.crates.io/crates/gtk4-macros/gtk4-macros-0.8.1.crate",
    "sha256": "40300bf071d2fcd4c94eacc09e84ec6fe73129d2ceb635cf7e55b026b5443567",
    "dest": "cargo/vendor/gtk4-macros-0.8.1"
  },
  {
    "type": "inline",
    "contents": "{\"package\": \"40300bf071d2fcd4c94eacc09e84ec6fe73129d2ceb635cf7e55b026b5443567\", \"files\": {}}",
    "dest": "cargo/vendor/gtk4-macros-0.8.1",
    "dest-filename": ".cargo-checksum.json"
  },
  {
    "type": "archive",
    "archive-type": "tar-gzip",
    "url": "https://static.crates.io/crates/gtk4-sys/gtk4-sys-0.8.1.crate",
    "sha256": "0db1b104138f087ccdc81d2c332de5dd049b89de3d384437cc1093b17cd2da18",
    "dest": "cargo/vendor/gtk4-sys-0.8.1"
  },
  {
    "type": "inline",
    "contents": "{\"package\": \"0db1b104138f087ccdc81d2c332de5dd049b89de3d384437cc1093b17cd2da18\", \"files\": {}}",
    "dest": "cargo/vendor/gtk4-sys-0.8.1",
    "dest-filename": ".cargo-checksum.json"
  },
  {
    "type": "archive",
    "archive-type": "tar-gzip",
    "url": "https://static.crates.io/crates/hashbrown/hashbrown-0.14.3.crate",
    "sha256": "290f1a1d9242c78d09ce40a5e87e7554ee637af1351968159f4952f028f75604",
    "dest": "cargo/vendor/hashbrown-0.14.3"
  },
  {
    "type": "inline",
    "contents": "{\"package\": \"290f1a1d9242c78d09ce40a5e87e7554ee637af1351968159f4952f028f75604\", \"files\": {}}",
    "dest": "cargo/vendor/hashbrown-0.14.3",
    "dest-filename": ".cargo-checksum.json"
  },
  {
    "type": "archive",
    "archive-type": "tar-gzip",
    "url": "https://static.crates.io/crates/hashlink/hashlink-0.9.0.crate",
    "sha256": "692eaaf7f7607518dd3cef090f1474b61edc5301d8012f09579920df68b725ee",
    "dest": "cargo/vendor/hashlink-0.9.0"
  },
  {
    "type": "inline",
    "contents": "{\"package\": \"692eaaf7f7607518dd3cef090f1474b61edc5301d8012f09579920df68b725ee\", \"files\": {}}",
    "dest": "cargo/vendor/hashlink-0.9.0",
    "dest-filename": ".cargo-checksum.json"
  },
  {
    "type": "archive",
    "archive-type": "tar-gzip",
    "url": "https://static.crates.io/crates/heck/heck-0.4.1.crate",
    "sha256": "95505c38b4572b2d910cecb0281560f54b440a19336cbbcb27bf6ce6adc6f5a8",
    "dest": "cargo/vendor/heck-0.4.1"
  },
  {
    "type": "inline",
    "contents": "{\"package\": \"95505c38b4572b2d910cecb0281560f54b440a19336cbbcb27bf6ce6adc6f5a8\", \"files\": {}}",
    "dest": "cargo/vendor/heck-0.4.1",
    "dest-filename": ".cargo-checksum.json"
  },
  {
    "type": "archive",
    "archive-type": "tar-gzip",
    "url": "https://static.crates.io/crates/indexmap/indexmap-2.2.5.crate",
    "sha256": "7b0b929d511467233429c45a44ac1dcaa21ba0f5ba11e4879e6ed28ddb4f9df4",
    "dest": "cargo/vendor/indexmap-2.2.5"
  },
  {
    "type": "inline",
    "contents": "{\"package\": \"7b0b929d511467233429c45a44ac1dcaa21ba0f5ba11e4879e6ed28ddb4f9df4\", \"files\": {}}",
    "dest": "cargo/vendor/indexmap-2.2.5",
    "dest-filename": ".cargo-checksum.json"
  },
  {
    "type": "archive",
    "archive-type": "tar-gzip",
    "url": "https://static.crates.io/crates/itoa/itoa-1.0.10.crate",
    "sha256": "b1a46d1a171d865aa5f83f92695765caa047a9b4cbae2cbf37dbd613a793fd4c",
    "dest": "cargo/vendor/itoa-1.0.10"
  },
  {
    "type": "inline",
    "contents": "{\"package\": \"b1a46d1a171d865aa5f83f92695765caa047a9b4cbae2cbf37dbd613a793fd4c\", \"files\": {}}",
    "dest": "cargo/vendor/itoa-1.0.10",
    "dest-filename": ".cargo-checksum.json"
  },
  {
    "type": "archive",
    "archive-type": "tar-gzip",
    "url": "https://static.crates.io/crates/lazy_static/lazy_static-1.4.0.crate",
    "sha256": "e2abad23fbc42b3700f2f279844dc832adb2b2eb069b2df918f455c4e18cc646",
    "dest": "cargo/vendor/lazy_static-1.4.0"
  },
  {
    "type": "inline",
    "contents": "{\"package\": \"e2abad23fbc42b3700f2f279844dc832adb2b2eb069b2df918f455c4e18cc646\", \"files\": {}}",
    "dest": "cargo/vendor/lazy_static-1.4.0",
    "dest-filename": ".cargo-checksum.json"
  },
  {
    "type": "archive",
    "archive-type": "tar-gzip",
    "url": "https://static.crates.io/crates/libadwaita/libadwaita-0.6.0.crate",
    "sha256": "91b4990248b9e1ec5e72094a2ccaea70ec3809f88f6fd52192f2af306b87c5d9",
    "dest": "cargo/vendor/libadwaita-0.6.0"
  },
  {
    "type": "inline",
    "contents": "{\"package\": \"91b4990248b9e1ec5e72094a2ccaea70ec3809f88f6fd52192f2af306b87c5d9\", \"files\": {}}",
    "dest": "cargo/vendor/libadwaita-0.6.0",
    "dest-filename": ".cargo-checksum.json"
  },
  {
    "type": "archive",
    "archive-type": "tar-gzip",
    "url": "https://static.crates.io/crates/libadwaita-sys/libadwaita-sys-0.6.0.crate",
    "sha256": "23a748e4e92be1265cd9e93d569c0b5dfc7814107985aa6743d670ab281ea1a8",
    "dest": "cargo/vendor/libadwaita-sys-0.6.0"
  },
  {
    "type": "inline",
    "contents": "{\"package\": \"23a748e4e92be1265cd9e93d569c0b5dfc7814107985aa6743d670ab281ea1a8\", \"files\": {}}",
    "dest": "cargo/vendor/libadwaita-sys-0.6.0",
    "dest-filename": ".cargo-checksum.json"
  },
  {
    "type": "archive",
    "archive-type": "tar-gzip",
    "url": "https://static.crates.io/crates/libc/libc-0.2.153.crate",
    "sha256": "9c198f91728a82281a64e1f4f9eeb25d82cb32a5de251c6bd1b5154d63a8e7bd",
    "dest": "cargo/vendor/libc-0.2.153"
  },
  {
    "type": "inline",
    "contents": "{\"package\": \"9c198f91728a82281a64e1f4f9eeb25d82cb32a5de251c6bd1b5154d63a8e7bd\", \"files\": {}}",
    "dest": "cargo/vendor/libc-0.2.153",
    "dest-filename": ".cargo-checksum.json"
  },
  {
    "type": "archive",
    "archive-type": "tar-gzip",
    "url": "https://static.crates.io/crates/libdbus-sys/libdbus-sys-0.2.5.crate",
    "sha256": "06085512b750d640299b79be4bad3d2fa90a9c00b1fd9e1b46364f66f0485c72",
    "dest": "cargo/vendor/libdbus-sys-0.2.5"
  },
  {
    "type": "inline",
    "contents": "{\"package\": \"06085512b750d640299b79be4bad3d2fa90a9c00b1fd9e1b46364f66f0485c72\", \"files\": {}}",
    "dest": "cargo/vendor/libdbus-sys-0.2.5",
    "dest-filename": ".cargo-checksum.json"
  },
  {
    "type": "archive",
    "archive-type": "tar-gzip",
    "url": "https://static.crates.io/crates/libsqlite3-sys/libsqlite3-sys-0.28.0.crate",
    "sha256": "0c10584274047cb335c23d3e61bcef8e323adae7c5c8c760540f73610177fc3f",
    "dest": "cargo/vendor/libsqlite3-sys-0.28.0"
  },
  {
    "type": "inline",
    "contents": "{\"package\": \"0c10584274047cb335c23d3e61bcef8e323adae7c5c8c760540f73610177fc3f\", \"files\": {}}",
    "dest": "cargo/vendor/libsqlite3-sys-0.28.0",
    "dest-filename": ".cargo-checksum.json"
  },
  {
    "type": "archive",
    "archive-type": "tar-gzip",
    "url": "https://static.crates.io/crates/libudev-sys/libudev-sys-0.1.4.crate",
    "sha256": "3c8469b4a23b962c1396b9b451dda50ef5b283e8dd309d69033475fa9b334324",
    "dest": "cargo/vendor/libudev-sys-0.1.4"
  },
  {
    "type": "inline",
    "contents": "{\"package\": \"3c8469b4a23b962c1396b9b451dda50ef5b283e8dd309d69033475fa9b334324\", \"files\": {}}",
    "dest": "cargo/vendor/libudev-sys-0.1.4",
    "dest-filename": ".cargo-checksum.json"
  },
  {
    "type": "archive",
    "archive-type": "tar-gzip",
    "url": "https://static.crates.io/crates/locale_config/locale_config-0.3.0.crate",
    "sha256": "08d2c35b16f4483f6c26f0e4e9550717a2f6575bcd6f12a53ff0c490a94a6934",
    "dest": "cargo/vendor/locale_config-0.3.0"
  },
  {
    "type": "inline",
    "contents": "{\"package\": \"08d2c35b16f4483f6c26f0e4e9550717a2f6575bcd6f12a53ff0c490a94a6934\", \"files\": {}}",
    "dest": "cargo/vendor/locale_config-0.3.0",
    "dest-filename": ".cargo-checksum.json"
  },
  {
    "type": "archive",
    "archive-type": "tar-gzip",
    "url": "https://static.crates.io/crates/malloc_buf/malloc_buf-0.0.6.crate",
    "sha256": "62bb907fe88d54d8d9ce32a3cceab4218ed2f6b7d35617cafe9adf84e43919cb",
    "dest": "cargo/vendor/malloc_buf-0.0.6"
  },
  {
    "type": "inline",
    "contents": "{\"package\": \"62bb907fe88d54d8d9ce32a3cceab4218ed2f6b7d35617cafe9adf84e43919cb\", \"files\": {}}",
    "dest": "cargo/vendor/malloc_buf-0.0.6",
    "dest-filename": ".cargo-checksum.json"
  },
  {
    "type": "archive",
    "archive-type": "tar-gzip",
    "url": "https://static.crates.io/crates/memchr/memchr-2.7.1.crate",
    "sha256": "523dc4f511e55ab87b694dc30d0f820d60906ef06413f93d4d7a1385599cc149",
    "dest": "cargo/vendor/memchr-2.7.1"
  },
  {
    "type": "inline",
    "contents": "{\"package\": \"523dc4f511e55ab87b694dc30d0f820d60906ef06413f93d4d7a1385599cc149\", \"files\": {}}",
    "dest": "cargo/vendor/memchr-2.7.1",
    "dest-filename": ".cargo-checksum.json"
  },
  {
    "type": "archive",
    "archive-type": "tar-gzip",
    "url": "https://static.crates.io/crates/memoffset/memoffset-0.9.0.crate",
    "sha256": "5a634b1c61a95585bd15607c6ab0c4e5b226e695ff2800ba0cdccddf208c406c",
    "dest": "cargo/vendor/memoffset-0.9.0"
  },
  {
    "type": "inline",
    "contents": "{\"package\": \"5a634b1c61a95585bd15607c6ab0c4e5b226e695ff2800ba0cdccddf208c406c\", \"files\": {}}",
    "dest": "cargo/vendor/memoffset-0.9.0",
    "dest-filename": ".cargo-checksum.json"
  },
  {
    "type": "archive",
    "archive-type": "tar-gzip",
    "url": "https://static.crates.io/crates/objc/objc-0.2.7.crate",
    "sha256": "915b1b472bc21c53464d6c8461c9d3af805ba1ef837e1cac254428f4a77177b1",
    "dest": "cargo/vendor/objc-0.2.7"
  },
  {
    "type": "inline",
    "contents": "{\"package\": \"915b1b472bc21c53464d6c8461c9d3af805ba1ef837e1cac254428f4a77177b1\", \"files\": {}}",
    "dest": "cargo/vendor/objc-0.2.7",
    "dest-filename": ".cargo-checksum.json"
  },
  {
    "type": "archive",
    "archive-type": "tar-gzip",
    "url": "https://static.crates.io/crates/objc-foundation/objc-foundation-0.1.1.crate",
    "sha256": "1add1b659e36c9607c7aab864a76c7a4c2760cd0cd2e120f3fb8b952c7e22bf9",
    "dest": "cargo/vendor/objc-foundation-0.1.1"
  },
  {
    "type": "inline",
    "contents": "{\"package\": \"1add1b659e36c9607c7aab864a76c7a4c2760cd0cd2e120f3fb8b952c7e22bf9\", \"files\": {}}",
    "dest": "cargo/vendor/objc-foundation-0.1.1",
    "dest-filename": ".cargo-checksum.json"
  },
  {
    "type": "archive",
    "archive-type": "tar-gzip",
    "url": "https://static.crates.io/crates/objc_id/objc_id-0.1.1.crate",
    "sha256": "c92d4ddb4bd7b50d730c215ff871754d0da6b2178849f8a2a2ab69712d0c073b",
    "dest": "cargo/vendor/objc_id-0.1.1"
  },
  {
    "type": "inline",
    "contents": "{\"package\": \"c92d4ddb4bd7b50d730c215ff871754d0da6b2178849f8a2a2ab69712d0c073b\", \"files\": {}}",
    "dest": "cargo/vendor/objc_id-0.1.1",
    "dest-filename": ".cargo-checksum.json"
  },
  {
    "type": "archive",
    "archive-type": "tar-gzip",
    "url": "https://static.crates.io/crates/once_cell/once_cell-1.19.0.crate",
    "sha256": "3fdb12b2476b595f9358c5161aa467c2438859caa136dec86c26fdd2efe17b92",
    "dest": "cargo/vendor/once_cell-1.19.0"
  },
  {
    "type": "inline",
    "contents": "{\"package\": \"3fdb12b2476b595f9358c5161aa467c2438859caa136dec86c26fdd2efe17b92\", \"files\": {}}",
    "dest": "cargo/vendor/once_cell-1.19.0",
    "dest-filename": ".cargo-checksum.json"
  },
  {
    "type": "archive",
    "archive-type": "tar-gzip",
    "url": "https://static.crates.io/crates/ordered-multimap/ordered-multimap-0.7.1.crate",
    "sha256": "a4d6a8c22fc714f0c2373e6091bf6f5e9b37b1bc0b1184874b7e0a4e303d318f",
    "dest": "cargo/vendor/ordered-multimap-0.7.1"
  },
  {
    "type": "inline",
    "contents": "{\"package\": \"a4d6a8c22fc714f0c2373e6091bf6f5e9b37b1bc0b1184874b7e0a4e303d318f\", \"files\": {}}",
    "dest": "cargo/vendor/ordered-multimap-0.7.1",
    "dest-filename": ".cargo-checksum.json"
  },
  {
    "type": "archive",
    "archive-type": "tar-gzip",
    "url": "https://static.crates.io/crates/pango/pango-0.19.2.crate",
    "sha256": "7809e8af4df8d024a066106b72ca6bc7253a484ae3867041a96103ef8a13188d",
    "dest": "cargo/vendor/pango-0.19.2"
  },
  {
    "type": "inline",
    "contents": "{\"package\": \"7809e8af4df8d024a066106b72ca6bc7253a484ae3867041a96103ef8a13188d\", \"files\": {}}",
    "dest": "cargo/vendor/pango-0.19.2",
    "dest-filename": ".cargo-checksum.json"
  },
  {
    "type": "archive",
    "archive-type": "tar-gzip",
    "url": "https://static.crates.io/crates/pango-sys/pango-sys-0.19.0.crate",
    "sha256": "f52ef6a881c19fbfe3b1484df5cad411acaaba29dbec843941c3110d19f340ea",
    "dest": "cargo/vendor/pango-sys-0.19.0"
  },
  {
    "type": "inline",
    "contents": "{\"package\": \"f52ef6a881c19fbfe3b1484df5cad411acaaba29dbec843941c3110d19f340ea\", \"files\": {}}",
    "dest": "cargo/vendor/pango-sys-0.19.0",
    "dest-filename": ".cargo-checksum.json"
  },
  {
    "type": "archive",
    "archive-type": "tar-gzip",
    "url": "https://static.crates.io/crates/pin-project-lite/pin-project-lite-0.2.13.crate",
    "sha256": "8afb450f006bf6385ca15ef45d71d2288452bc3683ce2e2cacc0d18e4be60b58",
    "dest": "cargo/vendor/pin-project-lite-0.2.13"
  },
  {
    "type": "inline",
    "contents": "{\"package\": \"8afb450f006bf6385ca15ef45d71d2288452bc3683ce2e2cacc0d18e4be60b58\", \"files\": {}}",
    "dest": "cargo/vendor/pin-project-lite-0.2.13",
    "dest-filename": ".cargo-checksum.json"
  },
  {
    "type": "archive",
    "archive-type": "tar-gzip",
    "url": "https://static.crates.io/crates/pin-utils/pin-utils-0.1.0.crate",
    "sha256": "8b870d8c151b6f2fb93e84a13146138f05d02ed11c7e7c54f8826aaaf7c9f184",
    "dest": "cargo/vendor/pin-utils-0.1.0"
  },
  {
    "type": "inline",
    "contents": "{\"package\": \"8b870d8c151b6f2fb93e84a13146138f05d02ed11c7e7c54f8826aaaf7c9f184\", \"files\": {}}",
    "dest": "cargo/vendor/pin-utils-0.1.0",
    "dest-filename": ".cargo-checksum.json"
  },
  {
    "type": "archive",
    "archive-type": "tar-gzip",
    "url": "https://static.crates.io/crates/pkg-config/pkg-config-0.3.30.crate",
    "sha256": "d231b230927b5e4ad203db57bbcbee2802f6bce620b1e4a9024a07d94e2907ec",
    "dest": "cargo/vendor/pkg-config-0.3.30"
  },
  {
    "type": "inline",
    "contents": "{\"package\": \"d231b230927b5e4ad203db57bbcbee2802f6bce620b1e4a9024a07d94e2907ec\", \"files\": {}}",
    "dest": "cargo/vendor/pkg-config-0.3.30",
    "dest-filename": ".cargo-checksum.json"
  },
  {
    "type": "archive",
    "archive-type": "tar-gzip",
    "url": "https://static.crates.io/crates/proc-macro-crate/proc-macro-crate-3.1.0.crate",
    "sha256": "6d37c51ca738a55da99dc0c4a34860fd675453b8b36209178c2249bb13651284",
    "dest": "cargo/vendor/proc-macro-crate-3.1.0"
  },
  {
    "type": "inline",
    "contents": "{\"package\": \"6d37c51ca738a55da99dc0c4a34860fd675453b8b36209178c2249bb13651284\", \"files\": {}}",
    "dest": "cargo/vendor/proc-macro-crate-3.1.0",
    "dest-filename": ".cargo-checksum.json"
  },
  {
    "type": "archive",
    "archive-type": "tar-gzip",
    "url": "https://static.crates.io/crates/proc-macro-error/proc-macro-error-1.0.4.crate",
    "sha256": "da25490ff9892aab3fcf7c36f08cfb902dd3e71ca0f9f9517bea02a73a5ce38c",
    "dest": "cargo/vendor/proc-macro-error-1.0.4"
  },
  {
    "type": "inline",
    "contents": "{\"package\": \"da25490ff9892aab3fcf7c36f08cfb902dd3e71ca0f9f9517bea02a73a5ce38c\", \"files\": {}}",
    "dest": "cargo/vendor/proc-macro-error-1.0.4",
    "dest-filename": ".cargo-checksum.json"
  },
  {
    "type": "archive",
    "archive-type": "tar-gzip",
    "url": "https://static.crates.io/crates/proc-macro-error-attr/proc-macro-error-attr-1.0.4.crate",
    "sha256": "a1be40180e52ecc98ad80b184934baf3d0d29f979574e439af5a55274b35f869",
    "dest": "cargo/vendor/proc-macro-error-attr-1.0.4"
  },
  {
    "type": "inline",
    "contents": "{\"package\": \"a1be40180e52ecc98ad80b184934baf3d0d29f979574e439af5a55274b35f869\", \"files\": {}}",
    "dest": "cargo/vendor/proc-macro-error-attr-1.0.4",
    "dest-filename": ".cargo-checksum.json"
  },
  {
    "type": "archive",
    "archive-type": "tar-gzip",
    "url": "https://static.crates.io/crates/proc-macro2/proc-macro2-1.0.78.crate",
    "sha256": "e2422ad645d89c99f8f3e6b88a9fdeca7fabeac836b1002371c4367c8f984aae",
    "dest": "cargo/vendor/proc-macro2-1.0.78"
  },
  {
    "type": "inline",
    "contents": "{\"package\": \"e2422ad645d89c99f8f3e6b88a9fdeca7fabeac836b1002371c4367c8f984aae\", \"files\": {}}",
    "dest": "cargo/vendor/proc-macro2-1.0.78",
    "dest-filename": ".cargo-checksum.json"
  },
  {
    "type": "archive",
    "archive-type": "tar-gzip",
    "url": "https://static.crates.io/crates/quote/quote-1.0.35.crate",
    "sha256": "291ec9ab5efd934aaf503a6466c5d5251535d108ee747472c3977cc5acc868ef",
    "dest": "cargo/vendor/quote-1.0.35"
  },
  {
    "type": "inline",
    "contents": "{\"package\": \"291ec9ab5efd934aaf503a6466c5d5251535d108ee747472c3977cc5acc868ef\", \"files\": {}}",
    "dest": "cargo/vendor/quote-1.0.35",
    "dest-filename": ".cargo-checksum.json"
  },
  {
    "type": "archive",
    "archive-type": "tar-gzip",
    "url": "https://static.crates.io/crates/regex/regex-1.10.3.crate",
    "sha256": "b62dbe01f0b06f9d8dc7d49e05a0785f153b00b2c227856282f671e0318c9b15",
    "dest": "cargo/vendor/regex-1.10.3"
  },
  {
    "type": "inline",
    "contents": "{\"package\": \"b62dbe01f0b06f9d8dc7d49e05a0785f153b00b2c227856282f671e0318c9b15\", \"files\": {}}",
    "dest": "cargo/vendor/regex-1.10.3",
    "dest-filename": ".cargo-checksum.json"
  },
  {
    "type": "archive",
    "archive-type": "tar-gzip",
    "url": "https://static.crates.io/crates/regex-automata/regex-automata-0.4.6.crate",
    "sha256": "86b83b8b9847f9bf95ef68afb0b8e6cdb80f498442f5179a29fad448fcc1eaea",
    "dest": "cargo/vendor/regex-automata-0.4.6"
  },
  {
    "type": "inline",
    "contents": "{\"package\": \"86b83b8b9847f9bf95ef68afb0b8e6cdb80f498442f5179a29fad448fcc1eaea\", \"files\": {}}",
    "dest": "cargo/vendor/regex-automata-0.4.6",
    "dest-filename": ".cargo-checksum.json"
  },
  {
    "type": "archive",
    "archive-type": "tar-gzip",
    "url": "https://static.crates.io/crates/regex-syntax/regex-syntax-0.8.2.crate",
    "sha256": "c08c74e62047bb2de4ff487b251e4a92e24f48745648451635cec7d591162d9f",
    "dest": "cargo/vendor/regex-syntax-0.8.2"
  },
  {
    "type": "inline",
    "contents": "{\"package\": \"c08c74e62047bb2de4ff487b251e4a92e24f48745648451635cec7d591162d9f\", \"files\": {}}",
    "dest": "cargo/vendor/regex-syntax-0.8.2",
    "dest-filename": ".cargo-checksum.json"
  },
  {
    "type": "archive",
    "archive-type": "tar-gzip",
    "url": "https://static.crates.io/crates/rusqlite/rusqlite-0.31.0.crate",
    "sha256": "b838eba278d213a8beaf485bd313fd580ca4505a00d5871caeb1457c55322cae",
    "dest": "cargo/vendor/rusqlite-0.31.0"
  },
  {
    "type": "inline",
    "contents": "{\"package\": \"b838eba278d213a8beaf485bd313fd580ca4505a00d5871caeb1457c55322cae\", \"files\": {}}",
    "dest": "cargo/vendor/rusqlite-0.31.0",
    "dest-filename": ".cargo-checksum.json"
  },
  {
    "type": "archive",
    "archive-type": "tar-gzip",
    "url": "https://static.crates.io/crates/rust-ini/rust-ini-0.21.0.crate",
    "sha256": "0d625ed57d8f49af6cfa514c42e1a71fadcff60eb0b1c517ff82fe41aa025b41",
    "dest": "cargo/vendor/rust-ini-0.21.0"
  },
  {
    "type": "inline",
    "contents": "{\"package\": \"0d625ed57d8f49af6cfa514c42e1a71fadcff60eb0b1c517ff82fe41aa025b41\", \"files\": {}}",
    "dest": "cargo/vendor/rust-ini-0.21.0",
    "dest-filename": ".cargo-checksum.json"
  },
  {
    "type": "archive",
    "archive-type": "tar-gzip",
    "url": "https://static.crates.io/crates/rustc_version/rustc_version-0.4.0.crate",
    "sha256": "bfa0f585226d2e68097d4f95d113b15b83a82e819ab25717ec0590d9584ef366",
    "dest": "cargo/vendor/rustc_version-0.4.0"
  },
  {
    "type": "inline",
    "contents": "{\"package\": \"bfa0f585226d2e68097d4f95d113b15b83a82e819ab25717ec0590d9584ef366\", \"files\": {}}",
    "dest": "cargo/vendor/rustc_version-0.4.0",
    "dest-filename": ".cargo-checksum.json"
  },
  {
    "type": "archive",
    "archive-type": "tar-gzip",
    "url": "https://static.crates.io/crates/ryu/ryu-1.0.17.crate",
    "sha256": "e86697c916019a8588c99b5fac3cead74ec0b4b819707a682fd4d23fa0ce1ba1",
    "dest": "cargo/vendor/ryu-1.0.17"
  },
  {
    "type": "inline",
    "contents": "{\"package\": \"e86697c916019a8588c99b5fac3cead74ec0b4b819707a682fd4d23fa0ce1ba1\", \"files\": {}}",
    "dest": "cargo/vendor/ryu-1.0.17",
    "dest-filename": ".cargo-checksum.json"
  },
  {
    "type": "archive",
    "archive-type": "tar-gzip",
    "url": "https://static.crates.io/crates/semver/semver-1.0.22.crate",
    "sha256": "92d43fe69e652f3df9bdc2b85b2854a0825b86e4fb76bc44d945137d053639ca",
    "dest": "cargo/vendor/semver-1.0.22"
  },
  {
    "type": "inline",
    "contents": "{\"package\": \"92d43fe69e652f3df9bdc2b85b2854a0825b86e4fb76bc44d945137d053639ca\", \"files\": {}}",
    "dest": "cargo/vendor/semver-1.0.22",
    "dest-filename": ".cargo-checksum.json"
  },
  {
    "type": "archive",
    "archive-type": "tar-gzip",
    "url": "https://static.crates.io/crates/serde/serde-1.0.197.crate",
    "sha256": "3fb1c873e1b9b056a4dc4c0c198b24c3ffa059243875552b2bd0933b1aee4ce2",
    "dest": "cargo/vendor/serde-1.0.197"
  },
  {
    "type": "inline",
    "contents": "{\"package\": \"3fb1c873e1b9b056a4dc4c0c198b24c3ffa059243875552b2bd0933b1aee4ce2\", \"files\": {}}",
    "dest": "cargo/vendor/serde-1.0.197",
    "dest-filename": ".cargo-checksum.json"
  },
  {
    "type": "archive",
    "archive-type": "tar-gzip",
    "url": "https://static.crates.io/crates/serde_derive/serde_derive-1.0.197.crate",
    "sha256": "7eb0b34b42edc17f6b7cac84a52a1c5f0e1bb2227e997ca9011ea3dd34e8610b",
    "dest": "cargo/vendor/serde_derive-1.0.197"
  },
  {
    "type": "inline",
    "contents": "{\"package\": \"7eb0b34b42edc17f6b7cac84a52a1c5f0e1bb2227e997ca9011ea3dd34e8610b\", \"files\": {}}",
    "dest": "cargo/vendor/serde_derive-1.0.197",
    "dest-filename": ".cargo-checksum.json"
  },
  {
    "type": "archive",
    "archive-type": "tar-gzip",
    "url": "https://static.crates.io/crates/serde_json/serde_json-1.0.114.crate",
    "sha256": "c5f09b1bd632ef549eaa9f60a1f8de742bdbc698e6cee2095fc84dde5f549ae0",
    "dest": "cargo/vendor/serde_json-1.0.114"
  },
  {
    "type": "inline",
    "contents": "{\"package\": \"c5f09b1bd632ef549eaa9f60a1f8de742bdbc698e6cee2095fc84dde5f549ae0\", \"files\": {}}",
    "dest": "cargo/vendor/serde_json-1.0.114",
    "dest-filename": ".cargo-checksum.json"
  },
  {
    "type": "archive",
    "archive-type": "tar-gzip",
    "url": "https://static.crates.io/crates/serde_spanned/serde_spanned-0.6.5.crate",
    "sha256": "eb3622f419d1296904700073ea6cc23ad690adbd66f13ea683df73298736f0c1",
    "dest": "cargo/vendor/serde_spanned-0.6.5"
  },
  {
    "type": "inline",
    "contents": "{\"package\": \"eb3622f419d1296904700073ea6cc23ad690adbd66f13ea683df73298736f0c1\", \"files\": {}}",
    "dest": "cargo/vendor/serde_spanned-0.6.5",
    "dest-filename": ".cargo-checksum.json"
  },
  {
    "type": "archive",
    "archive-type": "tar-gzip",
    "url": "https://static.crates.io/crates/slab/slab-0.4.9.crate",
    "sha256": "8f92a496fb766b417c996b9c5e57daf2f7ad3b0bebe1ccfca4856390e3d3bb67",
    "dest": "cargo/vendor/slab-0.4.9"
  },
  {
    "type": "inline",
    "contents": "{\"package\": \"8f92a496fb766b417c996b9c5e57daf2f7ad3b0bebe1ccfca4856390e3d3bb67\", \"files\": {}}",
    "dest": "cargo/vendor/slab-0.4.9",
    "dest-filename": ".cargo-checksum.json"
  },
  {
    "type": "archive",
    "archive-type": "tar-gzip",
    "url": "https://static.crates.io/crates/smallvec/smallvec-1.13.1.crate",
    "sha256": "e6ecd384b10a64542d77071bd64bd7b231f4ed5940fba55e98c3de13824cf3d7",
    "dest": "cargo/vendor/smallvec-1.13.1"
  },
  {
    "type": "inline",
    "contents": "{\"package\": \"e6ecd384b10a64542d77071bd64bd7b231f4ed5940fba55e98c3de13824cf3d7\", \"files\": {}}",
    "dest": "cargo/vendor/smallvec-1.13.1",
    "dest-filename": ".cargo-checksum.json"
  },
  {
    "type": "archive",
    "archive-type": "tar-gzip",
    "url": "https://static.crates.io/crates/syn/syn-1.0.109.crate",
    "sha256": "72b64191b275b66ffe2469e8af2c1cfe3bafa67b529ead792a6d0160888b4237",
    "dest": "cargo/vendor/syn-1.0.109"
  },
  {
    "type": "inline",
    "contents": "{\"package\": \"72b64191b275b66ffe2469e8af2c1cfe3bafa67b529ead792a6d0160888b4237\", \"files\": {}}",
    "dest": "cargo/vendor/syn-1.0.109",
    "dest-filename": ".cargo-checksum.json"
  },
  {
    "type": "archive",
    "archive-type": "tar-gzip",
    "url": "https://static.crates.io/crates/syn/syn-2.0.52.crate",
    "sha256": "b699d15b36d1f02c3e7c69f8ffef53de37aefae075d8488d4ba1a7788d574a07",
    "dest": "cargo/vendor/syn-2.0.52"
  },
  {
    "type": "inline",
    "contents": "{\"package\": \"b699d15b36d1f02c3e7c69f8ffef53de37aefae075d8488d4ba1a7788d574a07\", \"files\": {}}",
    "dest": "cargo/vendor/syn-2.0.52",
    "dest-filename": ".cargo-checksum.json"
  },
  {
    "type": "archive",
    "archive-type": "tar-gzip",
    "url": "https://static.crates.io/crates/system-deps/system-deps-6.2.0.crate",
    "sha256": "2a2d580ff6a20c55dfb86be5f9c238f67835d0e81cbdea8bf5680e0897320331",
    "dest": "cargo/vendor/system-deps-6.2.0"
  },
  {
    "type": "inline",
    "contents": "{\"package\": \"2a2d580ff6a20c55dfb86be5f9c238f67835d0e81cbdea8bf5680e0897320331\", \"files\": {}}",
    "dest": "cargo/vendor/system-deps-6.2.0",
    "dest-filename": ".cargo-checksum.json"
  },
  {
    "type": "archive",
    "archive-type": "tar-gzip",
    "url": "https://static.crates.io/crates/target-lexicon/target-lexicon-0.12.14.crate",
    "sha256": "e1fc403891a21bcfb7c37834ba66a547a8f402146eba7265b5a6d88059c9ff2f",
    "dest": "cargo/vendor/target-lexicon-0.12.14"
  },
  {
    "type": "inline",
    "contents": "{\"package\": \"e1fc403891a21bcfb7c37834ba66a547a8f402146eba7265b5a6d88059c9ff2f\", \"files\": {}}",
    "dest": "cargo/vendor/target-lexicon-0.12.14",
    "dest-filename": ".cargo-checksum.json"
  },
  {
    "type": "archive",
    "archive-type": "tar-gzip",
    "url": "https://static.crates.io/crates/temp-dir/temp-dir-0.1.12.crate",
    "sha256": "dd16aa9ffe15fe021c6ee3766772132c6e98dfa395a167e16864f61a9cfb71d6",
    "dest": "cargo/vendor/temp-dir-0.1.12"
  },
  {
    "type": "inline",
    "contents": "{\"package\": \"dd16aa9ffe15fe021c6ee3766772132c6e98dfa395a167e16864f61a9cfb71d6\", \"files\": {}}",
    "dest": "cargo/vendor/temp-dir-0.1.12",
    "dest-filename": ".cargo-checksum.json"
  },
  {
    "type": "archive",
    "archive-type": "tar-gzip",
    "url": "https://static.crates.io/crates/textdistance/textdistance-1.0.2.crate",
    "sha256": "d321c8576c2b47e43953e9cce236550d4cd6af0a6ce518fe084340082ca6037b",
    "dest": "cargo/vendor/textdistance-1.0.2"
  },
  {
    "type": "inline",
    "contents": "{\"package\": \"d321c8576c2b47e43953e9cce236550d4cd6af0a6ce518fe084340082ca6037b\", \"files\": {}}",
    "dest": "cargo/vendor/textdistance-1.0.2",
    "dest-filename": ".cargo-checksum.json"
  },
  {
    "type": "archive",
    "archive-type": "tar-gzip",
    "url": "https://static.crates.io/crates/thiserror/thiserror-1.0.57.crate",
    "sha256": "1e45bcbe8ed29775f228095caf2cd67af7a4ccf756ebff23a306bf3e8b47b24b",
    "dest": "cargo/vendor/thiserror-1.0.57"
  },
  {
    "type": "inline",
    "contents": "{\"package\": \"1e45bcbe8ed29775f228095caf2cd67af7a4ccf756ebff23a306bf3e8b47b24b\", \"files\": {}}",
    "dest": "cargo/vendor/thiserror-1.0.57",
    "dest-filename": ".cargo-checksum.json"
  },
  {
    "type": "archive",
    "archive-type": "tar-gzip",
    "url": "https://static.crates.io/crates/thiserror-impl/thiserror-impl-1.0.57.crate",
    "sha256": "a953cb265bef375dae3de6663da4d3804eee9682ea80d8e2542529b73c531c81",
    "dest": "cargo/vendor/thiserror-impl-1.0.57"
  },
  {
    "type": "inline",
    "contents": "{\"package\": \"a953cb265bef375dae3de6663da4d3804eee9682ea80d8e2542529b73c531c81\", \"files\": {}}",
    "dest": "cargo/vendor/thiserror-impl-1.0.57",
    "dest-filename": ".cargo-checksum.json"
  },
  {
    "type": "archive",
    "archive-type": "tar-gzip",
    "url": "https://static.crates.io/crates/tiny-keccak/tiny-keccak-2.0.2.crate",
    "sha256": "2c9d3793400a45f954c52e73d068316d76b6f4e36977e3fcebb13a2721e80237",
    "dest": "cargo/vendor/tiny-keccak-2.0.2"
  },
  {
    "type": "inline",
    "contents": "{\"package\": \"2c9d3793400a45f954c52e73d068316d76b6f4e36977e3fcebb13a2721e80237\", \"files\": {}}",
    "dest": "cargo/vendor/tiny-keccak-2.0.2",
    "dest-filename": ".cargo-checksum.json"
  },
  {
    "type": "archive",
    "archive-type": "tar-gzip",
    "url": "https://static.crates.io/crates/toml/toml-0.8.10.crate",
    "sha256": "9a9aad4a3066010876e8dcf5a8a06e70a558751117a145c6ce2b82c2e2054290",
    "dest": "cargo/vendor/toml-0.8.10"
  },
  {
    "type": "inline",
    "contents": "{\"package\": \"9a9aad4a3066010876e8dcf5a8a06e70a558751117a145c6ce2b82c2e2054290\", \"files\": {}}",
    "dest": "cargo/vendor/toml-0.8.10",
    "dest-filename": ".cargo-checksum.json"
  },
  {
    "type": "archive",
    "archive-type": "tar-gzip",
    "url": "https://static.crates.io/crates/toml_datetime/toml_datetime-0.6.5.crate",
    "sha256": "3550f4e9685620ac18a50ed434eb3aec30db8ba93b0287467bca5826ea25baf1",
    "dest": "cargo/vendor/toml_datetime-0.6.5"
  },
  {
    "type": "inline",
    "contents": "{\"package\": \"3550f4e9685620ac18a50ed434eb3aec30db8ba93b0287467bca5826ea25baf1\", \"files\": {}}",
    "dest": "cargo/vendor/toml_datetime-0.6.5",
    "dest-filename": ".cargo-checksum.json"
  },
  {
    "type": "archive",
    "archive-type": "tar-gzip",
    "url": "https://static.crates.io/crates/toml_edit/toml_edit-0.21.1.crate",
    "sha256": "6a8534fd7f78b5405e860340ad6575217ce99f38d4d5c8f2442cb5ecb50090e1",
    "dest": "cargo/vendor/toml_edit-0.21.1"
  },
  {
    "type": "inline",
    "contents": "{\"package\": \"6a8534fd7f78b5405e860340ad6575217ce99f38d4d5c8f2442cb5ecb50090e1\", \"files\": {}}",
    "dest": "cargo/vendor/toml_edit-0.21.1",
    "dest-filename": ".cargo-checksum.json"
  },
  {
    "type": "archive",
    "archive-type": "tar-gzip",
    "url": "https://static.crates.io/crates/toml_edit/toml_edit-0.22.6.crate",
    "sha256": "2c1b5fd4128cc8d3e0cb74d4ed9a9cc7c7284becd4df68f5f940e1ad123606f6",
    "dest": "cargo/vendor/toml_edit-0.22.6"
  },
  {
    "type": "inline",
    "contents": "{\"package\": \"2c1b5fd4128cc8d3e0cb74d4ed9a9cc7c7284becd4df68f5f940e1ad123606f6\", \"files\": {}}",
    "dest": "cargo/vendor/toml_edit-0.22.6",
    "dest-filename": ".cargo-checksum.json"
  },
  {
    "type": "archive",
    "archive-type": "tar-gzip",
    "url": "https://static.crates.io/crates/trim-in-place/trim-in-place-0.1.7.crate",
    "sha256": "343e926fc669bc8cde4fa3129ab681c63671bae288b1f1081ceee6d9d37904fc",
    "dest": "cargo/vendor/trim-in-place-0.1.7"
  },
  {
    "type": "inline",
    "contents": "{\"package\": \"343e926fc669bc8cde4fa3129ab681c63671bae288b1f1081ceee6d9d37904fc\", \"files\": {}}",
    "dest": "cargo/vendor/trim-in-place-0.1.7",
    "dest-filename": ".cargo-checksum.json"
  },
  {
    "type": "archive",
    "archive-type": "tar-gzip",
    "url": "https://static.crates.io/crates/unicode-ident/unicode-ident-1.0.12.crate",
    "sha256": "3354b9ac3fae1ff6755cb6db53683adb661634f67557942dea4facebec0fee4b",
    "dest": "cargo/vendor/unicode-ident-1.0.12"
  },
  {
    "type": "inline",
    "contents": "{\"package\": \"3354b9ac3fae1ff6755cb6db53683adb661634f67557942dea4facebec0fee4b\", \"files\": {}}",
    "dest": "cargo/vendor/unicode-ident-1.0.12",
    "dest-filename": ".cargo-checksum.json"
  },
  {
    "type": "archive",
    "archive-type": "tar-gzip",
    "url": "https://static.crates.io/crates/vcpkg/vcpkg-0.2.15.crate",
    "sha256": "accd4ea62f7bb7a82fe23066fb0957d48ef677f6eeb8215f372f52e48bb32426",
    "dest": "cargo/vendor/vcpkg-0.2.15"
  },
  {
    "type": "inline",
    "contents": "{\"package\": \"accd4ea62f7bb7a82fe23066fb0957d48ef677f6eeb8215f372f52e48bb32426\", \"files\": {}}",
    "dest": "cargo/vendor/vcpkg-0.2.15",
    "dest-filename": ".cargo-checksum.json"
  },
  {
    "type": "archive",
    "archive-type": "tar-gzip",
    "url": "https://static.crates.io/crates/version-compare/version-compare-0.1.1.crate",
    "sha256": "579a42fc0b8e0c63b76519a339be31bed574929511fa53c1a3acae26eb258f29",
    "dest": "cargo/vendor/version-compare-0.1.1"
  },
  {
    "type": "inline",
    "contents": "{\"package\": \"579a42fc0b8e0c63b76519a339be31bed574929511fa53c1a3acae26eb258f29\", \"files\": {}}",
    "dest": "cargo/vendor/version-compare-0.1.1",
    "dest-filename": ".cargo-checksum.json"
  },
  {
    "type": "archive",
    "archive-type": "tar-gzip",
    "url": "https://static.crates.io/crates/version_check/version_check-0.9.4.crate",
    "sha256": "49874b5167b65d7193b8aba1567f5c7d93d001cafc34600cee003eda787e483f",
    "dest": "cargo/vendor/version_check-0.9.4"
  },
  {
    "type": "inline",
    "contents": "{\"package\": \"49874b5167b65d7193b8aba1567f5c7d93d001cafc34600cee003eda787e483f\", \"files\": {}}",
    "dest": "cargo/vendor/version_check-0.9.4",
    "dest-filename": ".cargo-checksum.json"
  },
  {
    "type": "archive",
    "archive-type": "tar-gzip",
    "url": "https://static.crates.io/crates/wasi/wasi-0.11.0+wasi-snapshot-preview1.crate",
    "sha256": "9c8d87e72b64a3b4db28d11ce29237c246188f4f51057d65a7eab63b7987e423",
    "dest": "cargo/vendor/wasi-0.11.0+wasi-snapshot-preview1"
  },
  {
    "type": "inline",
    "contents": "{\"package\": \"9c8d87e72b64a3b4db28d11ce29237c246188f4f51057d65a7eab63b7987e423\", \"files\": {}}",
    "dest": "cargo/vendor/wasi-0.11.0+wasi-snapshot-preview1",
    "dest-filename": ".cargo-checksum.json"
  },
  {
    "type": "archive",
    "archive-type": "tar-gzip",
    "url": "https://static.crates.io/crates/winapi/winapi-0.3.9.crate",
    "sha256": "5c839a674fcd7a98952e593242ea400abe93992746761e38641405d28b00f419",
    "dest": "cargo/vendor/winapi-0.3.9"
  },
  {
    "type": "inline",
    "contents": "{\"package\": \"5c839a674fcd7a98952e593242ea400abe93992746761e38641405d28b00f419\", \"files\": {}}",
    "dest": "cargo/vendor/winapi-0.3.9",
    "dest-filename": ".cargo-checksum.json"
  },
  {
    "type": "archive",
    "archive-type": "tar-gzip",
    "url": "https://static.crates.io/crates/winapi-i686-pc-windows-gnu/winapi-i686-pc-windows-gnu-0.4.0.crate",
    "sha256": "ac3b87c63620426dd9b991e5ce0329eff545bccbbb34f3be09ff6fb6ab51b7b6",
    "dest": "cargo/vendor/winapi-i686-pc-windows-gnu-0.4.0"
  },
  {
    "type": "inline",
    "contents": "{\"package\": \"ac3b87c63620426dd9b991e5ce0329eff545bccbbb34f3be09ff6fb6ab51b7b6\", \"files\": {}}",
    "dest": "cargo/vendor/winapi-i686-pc-windows-gnu-0.4.0",
    "dest-filename": ".cargo-checksum.json"
  },
  {
    "type": "archive",
    "archive-type": "tar-gzip",
    "url": "https://static.crates.io/crates/winapi-x86_64-pc-windows-gnu/winapi-x86_64-pc-windows-gnu-0.4.0.crate",
    "sha256": "712e227841d057c1ee1cd2fb22fa7e5a5461ae8e48fa2ca79ec42cfc1931183f",
    "dest": "cargo/vendor/winapi-x86_64-pc-windows-gnu-0.4.0"
  },
  {
    "type": "inline",
    "contents": "{\"package\": \"712e227841d057c1ee1cd2fb22fa7e5a5461ae8e48fa2ca79ec42cfc1931183f\", \"files\": {}}",
    "dest": "cargo/vendor/winapi-x86_64-pc-windows-gnu-0.4.0",
    "dest-filename": ".cargo-checksum.json"
  },
  {
    "type": "archive",
    "archive-type": "tar-gzip",
    "url": "https://static.crates.io/crates/windows-sys/windows-sys-0.52.0.crate",
    "sha256": "282be5f36a8ce781fad8c8ae18fa3f9beff57ec1b52cb3de0789201425d9a33d",
    "dest": "cargo/vendor/windows-sys-0.52.0"
  },
  {
    "type": "inline",
    "contents": "{\"package\": \"282be5f36a8ce781fad8c8ae18fa3f9beff57ec1b52cb3de0789201425d9a33d\", \"files\": {}}",
    "dest": "cargo/vendor/windows-sys-0.52.0",
    "dest-filename": ".cargo-checksum.json"
  },
  {
    "type": "archive",
    "archive-type": "tar-gzip",
    "url": "https://static.crates.io/crates/windows-targets/windows-targets-0.52.4.crate",
    "sha256": "7dd37b7e5ab9018759f893a1952c9420d060016fc19a472b4bb20d1bdd694d1b",
    "dest": "cargo/vendor/windows-targets-0.52.4"
  },
  {
    "type": "inline",
    "contents": "{\"package\": \"7dd37b7e5ab9018759f893a1952c9420d060016fc19a472b4bb20d1bdd694d1b\", \"files\": {}}",
    "dest": "cargo/vendor/windows-targets-0.52.4",
    "dest-filename": ".cargo-checksum.json"
  },
  {
    "type": "archive",
    "archive-type": "tar-gzip",
    "url": "https://static.crates.io/crates/windows_aarch64_gnullvm/windows_aarch64_gnullvm-0.52.4.crate",
    "sha256": "bcf46cf4c365c6f2d1cc93ce535f2c8b244591df96ceee75d8e83deb70a9cac9",
    "dest": "cargo/vendor/windows_aarch64_gnullvm-0.52.4"
  },
  {
    "type": "inline",
    "contents": "{\"package\": \"bcf46cf4c365c6f2d1cc93ce535f2c8b244591df96ceee75d8e83deb70a9cac9\", \"files\": {}}",
    "dest": "cargo/vendor/windows_aarch64_gnullvm-0.52.4",
    "dest-filename": ".cargo-checksum.json"
  },
  {
    "type": "archive",
    "archive-type": "tar-gzip",
    "url": "https://static.crates.io/crates/windows_aarch64_msvc/windows_aarch64_msvc-0.52.4.crate",
    "sha256": "da9f259dd3bcf6990b55bffd094c4f7235817ba4ceebde8e6d11cd0c5633b675",
    "dest": "cargo/vendor/windows_aarch64_msvc-0.52.4"
  },
  {
    "type": "inline",
    "contents": "{\"package\": \"da9f259dd3bcf6990b55bffd094c4f7235817ba4ceebde8e6d11cd0c5633b675\", \"files\": {}}",
    "dest": "cargo/vendor/windows_aarch64_msvc-0.52.4",
    "dest-filename": ".cargo-checksum.json"
  },
  {
    "type": "archive",
    "archive-type": "tar-gzip",
    "url": "https://static.crates.io/crates/windows_i686_gnu/windows_i686_gnu-0.52.4.crate",
    "sha256": "b474d8268f99e0995f25b9f095bc7434632601028cf86590aea5c8a5cb7801d3",
    "dest": "cargo/vendor/windows_i686_gnu-0.52.4"
  },
  {
    "type": "inline",
    "contents": "{\"package\": \"b474d8268f99e0995f25b9f095bc7434632601028cf86590aea5c8a5cb7801d3\", \"files\": {}}",
    "dest": "cargo/vendor/windows_i686_gnu-0.52.4",
    "dest-filename": ".cargo-checksum.json"
  },
  {
    "type": "archive",
    "archive-type": "tar-gzip",
    "url": "https://static.crates.io/crates/windows_i686_msvc/windows_i686_msvc-0.52.4.crate",
    "sha256": "1515e9a29e5bed743cb4415a9ecf5dfca648ce85ee42e15873c3cd8610ff8e02",
    "dest": "cargo/vendor/windows_i686_msvc-0.52.4"
  },
  {
    "type": "inline",
    "contents": "{\"package\": \"1515e9a29e5bed743cb4415a9ecf5dfca648ce85ee42e15873c3cd8610ff8e02\", \"files\": {}}",
    "dest": "cargo/vendor/windows_i686_msvc-0.52.4",
    "dest-filename": ".cargo-checksum.json"
  },
  {
    "type": "archive",
    "archive-type": "tar-gzip",
    "url": "https://static.crates.io/crates/windows_x86_64_gnu/windows_x86_64_gnu-0.52.4.crate",
    "sha256": "5eee091590e89cc02ad514ffe3ead9eb6b660aedca2183455434b93546371a03",
    "dest": "cargo/vendor/windows_x86_64_gnu-0.52.4"
  },
  {
    "type": "inline",
    "contents": "{\"package\": \"5eee091590e89cc02ad514ffe3ead9eb6b660aedca2183455434b93546371a03\", \"files\": {}}",
    "dest": "cargo/vendor/windows_x86_64_gnu-0.52.4",
    "dest-filename": ".cargo-checksum.json"
  },
  {
    "type": "archive",
    "archive-type": "tar-gzip",
    "url": "https://static.crates.io/crates/windows_x86_64_gnullvm/windows_x86_64_gnullvm-0.52.4.crate",
    "sha256": "77ca79f2451b49fa9e2af39f0747fe999fcda4f5e241b2898624dca97a1f2177",
    "dest": "cargo/vendor/windows_x86_64_gnullvm-0.52.4"
  },
  {
    "type": "inline",
    "contents": "{\"package\": \"77ca79f2451b49fa9e2af39f0747fe999fcda4f5e241b2898624dca97a1f2177\", \"files\": {}}",
    "dest": "cargo/vendor/windows_x86_64_gnullvm-0.52.4",
    "dest-filename": ".cargo-checksum.json"
  },
  {
    "type": "archive",
    "archive-type": "tar-gzip",
    "url": "https://static.crates.io/crates/windows_x86_64_msvc/windows_x86_64_msvc-0.52.4.crate",
    "sha256": "32b752e52a2da0ddfbdbcc6fceadfeede4c939ed16d13e648833a61dfb611ed8",
    "dest": "cargo/vendor/windows_x86_64_msvc-0.52.4"
  },
  {
    "type": "inline",
    "contents": "{\"package\": \"32b752e52a2da0ddfbdbcc6fceadfeede4c939ed16d13e648833a61dfb611ed8\", \"files\": {}}",
    "dest": "cargo/vendor/windows_x86_64_msvc-0.52.4",
    "dest-filename": ".cargo-checksum.json"
  },
  {
    "type": "archive",
    "archive-type": "tar-gzip",
    "url": "https://static.crates.io/crates/winnow/winnow-0.5.40.crate",
    "sha256": "f593a95398737aeed53e489c785df13f3618e41dbcd6718c6addbf1395aa6876",
    "dest": "cargo/vendor/winnow-0.5.40"
  },
  {
    "type": "inline",
    "contents": "{\"package\": \"f593a95398737aeed53e489c785df13f3618e41dbcd6718c6addbf1395aa6876\", \"files\": {}}",
    "dest": "cargo/vendor/winnow-0.5.40",
    "dest-filename": ".cargo-checksum.json"
  },
  {
    "type": "archive",
    "archive-type": "tar-gzip",
    "url": "https://static.crates.io/crates/winnow/winnow-0.6.5.crate",
    "sha256": "dffa400e67ed5a4dd237983829e66475f0a4a26938c4b04c21baede6262215b8",
    "dest": "cargo/vendor/winnow-0.6.5"
  },
  {
    "type": "inline",
    "contents": "{\"package\": \"dffa400e67ed5a4dd237983829e66475f0a4a26938c4b04c21baede6262215b8\", \"files\": {}}",
    "dest": "cargo/vendor/winnow-0.6.5",
    "dest-filename": ".cargo-checksum.json"
  },
  {
    "type": "archive",
    "archive-type": "tar-gzip",
    "url": "https://static.crates.io/crates/zerocopy/zerocopy-0.7.32.crate",
    "sha256": "74d4d3961e53fa4c9a25a8637fc2bfaf2595b3d3ae34875568a5cf64787716be",
    "dest": "cargo/vendor/zerocopy-0.7.32"
  },
  {
    "type": "inline",
    "contents": "{\"package\": \"74d4d3961e53fa4c9a25a8637fc2bfaf2595b3d3ae34875568a5cf64787716be\", \"files\": {}}",
    "dest": "cargo/vendor/zerocopy-0.7.32",
    "dest-filename": ".cargo-checksum.json"
  },
  {
    "type": "archive",
    "archive-type": "tar-gzip",
    "url": "https://static.crates.io/crates/zerocopy-derive/zerocopy-derive-0.7.32.crate",
    "sha256": "9ce1b18ccd8e73a9321186f97e46f9f04b778851177567b1975109d26a08d2a6",
    "dest": "cargo/vendor/zerocopy-derive-0.7.32"
  },
  {
    "type": "inline",
    "contents": "{\"package\": \"9ce1b18ccd8e73a9321186f97e46f9f04b778851177567b1975109d26a08d2a6\", \"files\": {}}",
    "dest": "cargo/vendor/zerocopy-derive-0.7.32",
    "dest-filename": ".cargo-checksum.json"
  }
]